{
    "wallpaper": "/home/kimil/.config/wpg/wallpapers/26.jpg",
    "alpha": "100",

    "special": {
        "background": "#120615",
        "foreground": "#cc9e98",
        "cursor": "#cc9e98"
    },
    "colors": {
        "color0": "#120615",
        "color1": "#92533B",
        "color2": "#A16F38",
        "color3": "#8C0E4F",
        "color4": "#A90A5A",
        "color5": "#922D47",
        "color6": "#944441",
        "color7": "#cc9e98",
        "color8": "#8e6e6a",
        "color9": "#92533B",
        "color10": "#A16F38",
        "color11": "#8C0E4F",
        "color12": "#A90A5A",
        "color13": "#922D47",
        "color14": "#944441",
        "color15": "#cc9e98"
    }
}
