{
    "wallpaper": "/home/kimil/.config/wallpapers/0171.jpg",
    "alpha": "100",
    "special": {
        "background": "#011015",
        "foreground": "#a1dbe8",
        "cursor": "#a1dbe8"
    },
    "colors": {
        "color0": "#011015",
        "color1": "#92336E",
        "color2": "#026B99",
        "color3": "#57718F",
        "color4": "#0289B8",
        "color5": "#059CC8",
        "color6": "#02AED5",
        "color7": "#a1dbe8",
        "color8": "#7099a2",
        "color9": "#92336E",
        "color10": "#026B99",
        "color11": "#57718F",
        "color12": "#0289B8",
        "color13": "#059CC8",
        "color14": "#02AED5",
        "color15": "#a1dbe8"
    }
}