{
    "wallpaper": "/home/kimil/.config/wallpapers/0182.jpg",
    "alpha": "100",
    "special": {
        "background": "#031017",
        "foreground": "#b2b9c1",
        "cursor": "#b2b9c1"
    },
    "colors": {
        "color0": "#031017",
        "color1": "#314752",
        "color2": "#3A5464",
        "color3": "#475A67",
        "color4": "#4F5C64",
        "color5": "#536574",
        "color6": "#667687",
        "color7": "#b2b9c1",
        "color8": "#7c8187",
        "color9": "#314752",
        "color10": "#3A5464",
        "color11": "#475A67",
        "color12": "#4F5C64",
        "color13": "#536574",
        "color14": "#667687",
        "color15": "#b2b9c1"
    }
}