{
    "wallpaper": "/home/kimil/.config/wpg/wallpapers/14.jpg",
    "alpha": "100",

    "special": {
        "background": "#090407",
        "foreground": "#f6f2a0",
        "cursor": "#f6f2a0"
    },
    "colors": {
        "color0": "#090407",
        "color1": "#50074D",
        "color2": "#933207",
        "color3": "#B14707",
        "color4": "#E16307",
        "color5": "#FC9B10",
        "color6": "#FDDB2C",
        "color7": "#f6f2a0",
        "color8": "#aca970",
        "color9": "#50074D",
        "color10": "#933207",
        "color11": "#B14707",
        "color12": "#E16307",
        "color13": "#FC9B10",
        "color14": "#FDDB2C",
        "color15": "#f6f2a0"
    }
}
