{
    "wallpaper": "/home/kimil/.config/wallpapers/0072.jpg",
    "alpha": "100",
    "special": {
        "background": "#0F1210",
        "foreground": "#9cc4d9",
        "cursor": "#9cc4d9"
    },
    "colors": {
        "color0": "#0F1210",
        "color1": "#998B71",
        "color2": "#075589",
        "color3": "#1E6A98",
        "color4": "#1857BB",
        "color5": "#507791",
        "color6": "#62889E",
        "color7": "#9cc4d9",
        "color8": "#6d8997",
        "color9": "#998B71",
        "color10": "#075589",
        "color11": "#1E6A98",
        "color12": "#1857BB",
        "color13": "#507791",
        "color14": "#62889E",
        "color15": "#9cc4d9"
    }
}