{
    "wallpaper": "/home/kimil/.config/wallpapers/0045.jpg",
    "alpha": "100",
    "special": {
        "background": "#03050B",
        "foreground": "#b5b8bd",
        "cursor": "#b5b8bd"
    },
    "colors": {
        "color0": "#03050B",
        "color1": "#3B4451",
        "color2": "#3C4562",
        "color3": "#464E59",
        "color4": "#4C5467",
        "color5": "#606771",
        "color6": "#6F7785",
        "color7": "#b5b8bd",
        "color8": "#7e8084",
        "color9": "#3B4451",
        "color10": "#3C4562",
        "color11": "#464E59",
        "color12": "#4C5467",
        "color13": "#606771",
        "color14": "#6F7785",
        "color15": "#b5b8bd"
    }
}