{
    "wallpaper": "/home/kimil/.config/wpg/wallpapers/32.jpg",
    "alpha": "100",

    "special": {
        "background": "#0D1015",
        "foreground": "#c2d0dd",
        "cursor": "#c2d0dd"
    },
    "colors": {
        "color0": "#0D1015",
        "color1": "#374D69",
        "color2": "#4D5B6D",
        "color3": "#3B5C86",
        "color4": "#58708F",
        "color5": "#708CA9",
        "color6": "#759AC7",
        "color7": "#c2d0dd",
        "color8": "#87919a",
        "color9": "#374D69",
        "color10": "#4D5B6D",
        "color11": "#3B5C86",
        "color12": "#58708F",
        "color13": "#708CA9",
        "color14": "#759AC7",
        "color15": "#c2d0dd"
    }
}
