{
    "wallpaper": "/home/kimil/.config/wallpapers/0108.jpg",
    "alpha": "100",
    "special": {
        "background": "#121211",
        "foreground": "#dcd2ca",
        "cursor": "#dcd2ca"
    },
    "colors": {
        "color0": "#121211",
        "color1": "#BE7458",
        "color2": "#649345",
        "color3": "#E89970",
        "color4": "#CBB368",
        "color5": "#4B6E93",
        "color6": "#6391B8",
        "color7": "#dcd2ca",
        "color8": "#9a938d",
        "color9": "#BE7458",
        "color10": "#649345",
        "color11": "#E89970",
        "color12": "#CBB368",
        "color13": "#4B6E93",
        "color14": "#6391B8",
        "color15": "#dcd2ca"
    }
}