{
    "wallpaper": "/home/kimil/.config/wpg/wallpapers/31.jpg",
    "alpha": "100",

    "special": {
        "background": "#09060D",
        "foreground": "#b0bfdd",
        "cursor": "#b0bfdd"
    },
    "colors": {
        "color0": "#09060D",
        "color1": "#9B3A5D",
        "color2": "#974975",
        "color3": "#40489A",
        "color4": "#615198",
        "color5": "#A35F96",
        "color6": "#CA6FA4",
        "color7": "#b0bfdd",
        "color8": "#7b859a",
        "color9": "#9B3A5D",
        "color10": "#974975",
        "color11": "#40489A",
        "color12": "#615198",
        "color13": "#A35F96",
        "color14": "#CA6FA4",
        "color15": "#b0bfdd"
    }
}
