{
    "wallpaper": "/home/kimil/.config/wallpapers/0006.jpg",
    "alpha": "100",
    "special": {
        "background": "#080111",
        "foreground": "#d986c6",
        "cursor": "#d986c6"
    },
    "colors": {
        "color0": "#080111",
        "color1": "#4F044D",
        "color2": "#670A5A",
        "color3": "#564B6D",
        "color4": "#9D125C",
        "color5": "#B42950",
        "color6": "#431D9B",
        "color7": "#d986c6",
        "color8": "#975d8a",
        "color9": "#4F044D",
        "color10": "#670A5A",
        "color11": "#564B6D",
        "color12": "#9D125C",
        "color13": "#B42950",
        "color14": "#431D9B",
        "color15": "#d986c6"
    }
}