{
    "wallpaper": "/home/kimil/.config/wallpapers/0184.jpg",
    "alpha": "100",
    "special": {
        "background": "#010102",
        "foreground": "#bdaeec",
        "cursor": "#bdaeec"
    },
    "colors": {
        "color0": "#010102",
        "color1": "#442E78",
        "color2": "#3F328F",
        "color3": "#49338F",
        "color4": "#5439AB",
        "color5": "#5D47AF",
        "color6": "#6A57D7",
        "color7": "#bdaeec",
        "color8": "#8479a5",
        "color9": "#442E78",
        "color10": "#3F328F",
        "color11": "#49338F",
        "color12": "#5439AB",
        "color13": "#5D47AF",
        "color14": "#6A57D7",
        "color15": "#bdaeec"
    }
}