{
    "wallpaper": "/home/kimil/.config/wallpapers/0067.jpg",
    "alpha": "100",
    "special": {
        "background": "#0c1322",
        "foreground": "#d4d8d4",
        "cursor": "#d4d8d4"
    },
    "colors": {
        "color0": "#0c1322",
        "color1": "#3C894A",
        "color2": "#629075",
        "color3": "#858558",
        "color4": "#6C958D",
        "color5": "#6D9A8D",
        "color6": "#9EB1A4",
        "color7": "#d4d8d4",
        "color8": "#949794",
        "color9": "#3C894A",
        "color10": "#629075",
        "color11": "#858558",
        "color12": "#6C958D",
        "color13": "#6D9A8D",
        "color14": "#9EB1A4",
        "color15": "#d4d8d4"
    }
}