{
    "wallpaper": "/home/kimil/.config/wpg/wallpapers/bg_29.jpg",
    "alpha": "100",

    "special": {
        "background": "#120f16",
        "foreground": "#dde0df",
        "cursor": "#dde0df"
    },
    "colors": {
        "color0": "#120f16",
        "color1": "#A46655",
        "color2": "#F29939",
        "color3": "#7E7887",
        "color4": "#A8A8AB",
        "color5": "#CDBEB2",
        "color6": "#BCC3C5",
        "color7": "#dde0df",
        "color8": "#9a9c9c",
        "color9": "#A46655",
        "color10": "#F29939",
        "color11": "#7E7887",
        "color12": "#A8A8AB",
        "color13": "#CDBEB2",
        "color14": "#BCC3C5",
        "color15": "#dde0df"
    }
}
