{
    "wallpaper": "/home/kimil/.config/wallpapers/0189.jpg",
    "alpha": "100",
    "special": {
        "background": "#050A11",
        "foreground": "#9ac5c7",
        "cursor": "#9ac5c7"
    },
    "colors": {
        "color0": "#050A11",
        "color1": "#6F6D51",
        "color2": "#81743C",
        "color3": "#887858",
        "color4": "#78874C",
        "color5": "#9F9963",
        "color6": "#C3AD78",
        "color7": "#9ac5c7",
        "color8": "#6b898b",
        "color9": "#6F6D51",
        "color10": "#81743C",
        "color11": "#887858",
        "color12": "#78874C",
        "color13": "#9F9963",
        "color14": "#C3AD78",
        "color15": "#9ac5c7"
    }
}