{
    "wallpaper": "/home/kimil/.config/wpg/wallpapers/18.jpg",
    "alpha": "100",

    "special": {
        "background": "#020E1C",
        "foreground": "#abc1dc",
        "cursor": "#abc1dc"
    },
    "colors": {
        "color0": "#020E1C",
        "color1": "#4B5A66",
        "color2": "#2F538B",
        "color3": "#36609D",
        "color4": "#3A5FA0",
        "color5": "#536E9A",
        "color6": "#6E87AF",
        "color7": "#abc1dc",
        "color8": "#77879a",
        "color9": "#4B5A66",
        "color10": "#2F538B",
        "color11": "#36609D",
        "color12": "#3A5FA0",
        "color13": "#536E9A",
        "color14": "#6E87AF",
        "color15": "#abc1dc"
    }
}
