{
    "wallpaper": "/home/kimil/.config/wallpapers/0174.jpg",
    "alpha": "100",
    "special": {
        "background": "#040A17",
        "foreground": "#95a7c7",
        "cursor": "#95a7c7"
    },
    "colors": {
        "color0": "#040A17",
        "color1": "#243861",
        "color2": "#024D53",
        "color3": "#075F5C",
        "color4": "#064F68",
        "color5": "#016871",
        "color6": "#086E8A",
        "color7": "#95a7c7",
        "color8": "#68748b",
        "color9": "#243861",
        "color10": "#024D53",
        "color11": "#075F5C",
        "color12": "#064F68",
        "color13": "#016871",
        "color14": "#086E8A",
        "color15": "#95a7c7"
    }
}