{
    "wallpaper": "/home/kimil/.config/wpg/wallpapers/42.jpg",
    "alpha": "100",

    "special": {
        "background": "#040A12",
        "foreground": "#9cc9e0",
        "cursor": "#9cc9e0"
    },
    "colors": {
        "color0": "#040A12",
        "color1": "#1C4372",
        "color2": "#274774",
        "color3": "#45446D",
        "color4": "#28558C",
        "color5": "#28639F",
        "color6": "#466DA8",
        "color7": "#9cc9e0",
        "color8": "#6d8c9c",
        "color9": "#1C4372",
        "color10": "#274774",
        "color11": "#45446D",
        "color12": "#28558C",
        "color13": "#28639F",
        "color14": "#466DA8",
        "color15": "#9cc9e0"
    }
}
