{
    "wallpaper": "/home/kimil/.config/wallpapers/0170.jpg",
    "alpha": "100",
    "special": {
        "background": "#090B0F",
        "foreground": "#98c5c9",
        "cursor": "#98c5c9"
    },
    "colors": {
        "color0": "#090B0F",
        "color1": "#03526D",
        "color2": "#605652",
        "color3": "#A05B3E",
        "color4": "#BD9166",
        "color5": "#076A8B",
        "color6": "#537888",
        "color7": "#98c5c9",
        "color8": "#6a898c",
        "color9": "#03526D",
        "color10": "#605652",
        "color11": "#A05B3E",
        "color12": "#BD9166",
        "color13": "#076A8B",
        "color14": "#537888",
        "color15": "#98c5c9"
    }
}