{
    "wallpaper": "/home/kimil/.config/wpg/wallpapers/8.jpg",
    "alpha": "100",

    "special": {
        "background": "#060416",
        "foreground": "#d9a7e3",
        "cursor": "#d9a7e3"
    },
    "colors": {
        "color0": "#060416",
        "color1": "#4B4973",
        "color2": "#692C91",
        "color3": "#7245A2",
        "color4": "#9135A8",
        "color5": "#9A47B5",
        "color6": "#AF58CE",
        "color7": "#d9a7e3",
        "color8": "#97749e",
        "color9": "#4B4973",
        "color10": "#692C91",
        "color11": "#7245A2",
        "color12": "#9135A8",
        "color13": "#9A47B5",
        "color14": "#AF58CE",
        "color15": "#d9a7e3"
    }
}
