{
    "wallpaper": "/home/kimil/.config/wallpapers/0017.jpg",
    "alpha": "100",
    "special": {
        "background": "#000000",
        "foreground": "#dcdcdc",
        "cursor": "#dcdcdc"
    },
    "colors": {
        "color0": "#000000",
        "color1": "#383838",
        "color2": "#464646",
        "color3": "#575757",
        "color4": "#717171",
        "color5": "#8E8E8E",
        "color6": "#AFAFAF",
        "color7": "#dcdcdc",
        "color8": "#9a9a9a",
        "color9": "#383838",
        "color10": "#464646",
        "color11": "#575757",
        "color12": "#717171",
        "color13": "#8E8E8E",
        "color14": "#AFAFAF",
        "color15": "#dcdcdc"
    }
}