{
    "wallpaper": "/home/kimil/.config/wallpapers/0100.jpg",
    "alpha": "100",
    "special": {
        "background": "#090B06",
        "foreground": "#e4ced1",
        "cursor": "#e4ced1"
    },
    "colors": {
        "color0": "#090B06",
        "color1": "#BCA627",
        "color2": "#49408C",
        "color3": "#695C94",
        "color4": "#8F7498",
        "color5": "#9D7BB2",
        "color6": "#A08EA7",
        "color7": "#e4ced1",
        "color8": "#9f9092",
        "color9": "#BCA627",
        "color10": "#49408C",
        "color11": "#695C94",
        "color12": "#8F7498",
        "color13": "#9D7BB2",
        "color14": "#A08EA7",
        "color15": "#e4ced1"
    }
}