{
    "wallpaper": "/home/kimil/.config/wallpapers/0166.jpg",
    "alpha": "100",
    "special": {
        "background": "#0F0D17",
        "foreground": "#c6d0c6",
        "cursor": "#c6d0c6"
    },
    "colors": {
        "color0": "#0F0D17",
        "color1": "#D4A956",
        "color2": "#2870AB",
        "color3": "#6B9EAC",
        "color4": "#0B8EEC",
        "color5": "#319FED",
        "color6": "#58B0E8",
        "color7": "#c6d0c6",
        "color8": "#8a918a",
        "color9": "#D4A956",
        "color10": "#2870AB",
        "color11": "#6B9EAC",
        "color12": "#0B8EEC",
        "color13": "#319FED",
        "color14": "#58B0E8",
        "color15": "#c6d0c6"
    }
}