{
    "wallpaper": "/home/kimil/.config/wallpapers/0172.jpg",
    "alpha": "100",
    "special": {
        "background": "#0c1121",
        "foreground": "#f4dabe",
        "cursor": "#f4dabe"
    },
    "colors": {
        "color0": "#0c1121",
        "color1": "#F39A5E",
        "color2": "#F9AF6F",
        "color3": "#FCD56E",
        "color4": "#5B5B81",
        "color5": "#E1B696",
        "color6": "#C6BDB1",
        "color7": "#f4dabe",
        "color8": "#aa9885",
        "color9": "#F39A5E",
        "color10": "#F9AF6F",
        "color11": "#FCD56E",
        "color12": "#5B5B81",
        "color13": "#E1B696",
        "color14": "#C6BDB1",
        "color15": "#f4dabe"
    }
}