{
    "wallpaper": "/home/kimil/.config/wallpapers/0096.jpg",
    "alpha": "100",
    "special": {
        "background": "#060A0E",
        "foreground": "#b6b8be",
        "cursor": "#b6b8be"
    },
    "colors": {
        "color0": "#060A0E",
        "color1": "#313846",
        "color2": "#3B4453",
        "color3": "#4C4A51",
        "color4": "#605F65",
        "color5": "#887157",
        "color6": "#6F7588",
        "color7": "#b6b8be",
        "color8": "#7f8085",
        "color9": "#313846",
        "color10": "#3B4453",
        "color11": "#4C4A51",
        "color12": "#605F65",
        "color13": "#887157",
        "color14": "#6F7588",
        "color15": "#b6b8be"
    }
}