{
    "wallpaper": "/home/kimil/.config/wpg/wallpapers/40.jpg",
    "alpha": "100",

    "special": {
        "background": "#05090C",
        "foreground": "#c3c2bf",
        "cursor": "#c3c2bf"
    },
    "colors": {
        "color0": "#05090C",
        "color1": "#3A444A",
        "color2": "#3E5B63",
        "color3": "#4B4E51",
        "color4": "#676B6B",
        "color5": "#7D7F7B",
        "color6": "#8B8777",
        "color7": "#c3c2bf",
        "color8": "#888785",
        "color9": "#3A444A",
        "color10": "#3E5B63",
        "color11": "#4B4E51",
        "color12": "#676B6B",
        "color13": "#7D7F7B",
        "color14": "#8B8777",
        "color15": "#c3c2bf"
    }
}
