{
    "wallpaper": "/home/kimil/.config/wallpapers/0188.jpg",
    "alpha": "100",
    "special": {
        "background": "#0D0E16",
        "foreground": "#dedcd3",
        "cursor": "#dedcd3"
    },
    "colors": {
        "color0": "#0D0E16",
        "color1": "#5A6576",
        "color2": "#636E7C",
        "color3": "#6B7785",
        "color4": "#7A858D",
        "color5": "#969D9B",
        "color6": "#C0BFB1",
        "color7": "#dedcd3",
        "color8": "#9b9a93",
        "color9": "#5A6576",
        "color10": "#636E7C",
        "color11": "#6B7785",
        "color12": "#7A858D",
        "color13": "#969D9B",
        "color14": "#C0BFB1",
        "color15": "#dedcd3"
    }
}