{
    "wallpaper": "/home/kimil/.config/wallpapers/0193.jpg",
    "alpha": "100",
    "special": {
        "background": "#03060E",
        "foreground": "#e9c5c9",
        "cursor": "#e9c5c9"
    },
    "colors": {
        "color0": "#03060E",
        "color1": "#D6877C",
        "color2": "#3B6785",
        "color3": "#54718A",
        "color4": "#AC778B",
        "color5": "#6F8A9E",
        "color6": "#AB9BA9",
        "color7": "#e9c5c9",
        "color8": "#a3898c",
        "color9": "#D6877C",
        "color10": "#3B6785",
        "color11": "#54718A",
        "color12": "#AC778B",
        "color13": "#6F8A9E",
        "color14": "#AB9BA9",
        "color15": "#e9c5c9"
    }
}