{
    "wallpaper": "/home/kimil/.config/wallpapers/0111.jpg",
    "alpha": "100",
    "special": {
        "background": "#0b0d1c",
        "foreground": "#f5c57b",
        "cursor": "#f5c57b"
    },
    "colors": {
        "color0": "#0b0d1c",
        "color1": "#573349",
        "color2": "#5D5050",
        "color3": "#A53C3A",
        "color4": "#DF2C15",
        "color5": "#F05B14",
        "color6": "#1B8C46",
        "color7": "#f5c57b",
        "color8": "#ab8956",
        "color9": "#573349",
        "color10": "#5D5050",
        "color11": "#A53C3A",
        "color12": "#DF2C15",
        "color13": "#F05B14",
        "color14": "#1B8C46",
        "color15": "#f5c57b"
    }
}