{
    "wallpaper": "/home/kimil/.config/wpg/wallpapers/1.jpg",
    "alpha": "100",

    "special": {
        "background": "#120718",
        "foreground": "#b4b8cf",
        "cursor": "#b4b8cf"
    },
    "colors": {
        "color0": "#120718",
        "color1": "#6B2E8B",
        "color2": "#3E408F",
        "color3": "#66549B",
        "color4": "#8B35A1",
        "color5": "#9353B0",
        "color6": "#AB69CC",
        "color7": "#b4b8cf",
        "color8": "#7d8090",
        "color9": "#6B2E8B",
        "color10": "#3E408F",
        "color11": "#66549B",
        "color12": "#8B35A1",
        "color13": "#9353B0",
        "color14": "#AB69CC",
        "color15": "#b4b8cf"
    }
}
