{
    "wallpaper": "/home/kimil/.config/wallpapers/0164.jpg",
    "alpha": "100",
    "special": {
        "background": "#090507",
        "foreground": "#e4a4a6",
        "cursor": "#e4a4a6"
    },
    "colors": {
        "color0": "#090507",
        "color1": "#51254A",
        "color2": "#6F2A4C",
        "color3": "#6F474E",
        "color4": "#BF3139",
        "color5": "#993253",
        "color6": "#AA485A",
        "color7": "#e4a4a6",
        "color8": "#9f7274",
        "color9": "#51254A",
        "color10": "#6F2A4C",
        "color11": "#6F474E",
        "color12": "#BF3139",
        "color13": "#993253",
        "color14": "#AA485A",
        "color15": "#e4a4a6"
    }
}